{
  "project_info": {
    "project_number": "897639860927",
    "firebase_url": "https://zondedldb.firebaseio.com",
    "project_id": "zondedldb",
    "storage_bucket": "zondedldb.appspot.com"
  },
  "client": [
    {
      "client_info": {
        "mobilesdk_app_id": "1:897639860927:android:fa7e7a318a521942",
        "android_client_info": {
          "package_name": "com.zonedldb"
        }
      },
      "oauth_client": [
        {
          "client_id": "897639860927-5jd4rmaq0nfa2ep0vgumlujfj86jrq4d.apps.googleusercontent.com",
          "client_type": 3
        }
      ],
      "api_key": [
        {
          "current_key": "AIzaSyAeYNQOc-W8nkGhLnPhOLEm2JV-0bRgVEA"
        }
      ],
      "services": {
        "analytics_service": {
          "status": 1
        },
        "appinvite_service": {
          "status": 1,
          "other_platform_oauth_client": []
        },
        "ads_service": {
          "status": 2
        }
      }
    }
  ],
  "configuration_version": "1"
}